{
    "dependencies": [
        "Admin"
    ],
    "routes": {
        "/admin/modules/": "modules",
        "/admin/modules/module/": "module"
    },
    "response_postprocess": {
        "/admin/": "admin"
    }
}